Project
…
Take the values

field_long <- as.data.frame(field) |>
  mutate(linha = row_number()) |>
  pivot_longer(
    cols = -linha,
    names_to = "coluna",
    values_to = "valor"
  ) |>
  mutate(coluna = as.numeric(gsub("V", "", coluna)))

field_long

# A tibble: 60 × 3
   linha coluna  valor
   <int>  <dbl>  <dbl>
 1     1      1 -13.6 
 2     1      2 -12.5 
 3     1      3 -14.6 
 4     1      4  -9.74
 5     2      1  -9.75
 6     2      2  -8.82
 7     2      3 -12.1 
 8     2      4  -9.01
 9     3      1 -12.8 
10     3      2 -10.4 
# ℹ 50 more rows
…
